Library\Bee\artifacts\mvdfrm\Unity.EditorCoroutines.Editor.ref.dll_34ED10A34098B2DB.mvfrm
Library\Bee\artifacts\mvdfrm\Unity.InputSystem.ref.dll_FD2EC87C14EBE081.mvfrm
Library\Bee\artifacts\mvdfrm\Unity.InternalAPIEditorBridge.007.ref.dll_97B87E3425FBC6C4.mvfrm
Library\Bee\artifacts\mvdfrm\Unity.InternalAPIEngineBridge.007.ref.dll_8A3336DE8B0AAE09.mvfrm
Library\Bee\artifacts\mvdfrm\Unity.Performance.Profile-Analyzer.Editor.ref.dll_65A192712782EB2B.mvfrm
Library\Bee\artifacts\mvdfrm\Unity.PlasticSCM.Editor.ref.dll_257AEB342BE77856.mvfrm
Library\Bee\artifacts\mvdfrm\Unity.Rider.Editor.ref.dll_9B5591808ABA37AF.mvfrm
Library\Bee\artifacts\mvdfrm\Unity.Services.Core.Analytics.ref.dll_EDA1682A714EA6BF.mvfrm
Library\Bee\artifacts\mvdfrm\Unity.Services.Core.Environments.ref.dll_7E0AC2CDE81D9C6D.mvfrm
Library\Bee\artifacts\mvdfrm\Unity.Services.Core.ref.dll_131AC9C5EC6E6517.mvfrm
Library\Bee\artifacts\mvdfrm\Unity.Subsystem.Registration.ref.dll_6F73CCF373812FF6.mvfrm
Library\Bee\artifacts\mvdfrm\Unity.TestTools.CodeCoverage.Editor.OpenCover.Model.ref.dll_D3B9364D6FB03093.mvfrm
Library\Bee\artifacts\mvdfrm\Unity.TestTools.CodeCoverage.Editor.OpenCover.Mono.Reflection.ref.dll_E668CD773429A040.mvfrm
Library\Bee\artifacts\mvdfrm\Unity.TestTools.CodeCoverage.Editor.ref.dll_F09CF4826CE11CD9.mvfrm
Library\Bee\artifacts\mvdfrm\Unity.TextMeshPro.Editor.ref.dll_159E061D77A10B86.mvfrm
Library\Bee\artifacts\mvdfrm\Unity.TextMeshPro.ref.dll_84A4293DBDD182DB.mvfrm
Library\Bee\artifacts\mvdfrm\Unity.Timeline.Editor.ref.dll_0D3D3C0B73557612.mvfrm
Library\Bee\artifacts\mvdfrm\Unity.Timeline.ref.dll_621CDDF9C514DF8F.mvfrm
Library\Bee\artifacts\mvdfrm\Unity.Tutorials.Core.Editor.ref.dll_50087571DCD14B8B.mvfrm
Library\Bee\artifacts\mvdfrm\Unity.Tutorials.Core.ref.dll_D3CDBE453963C686.mvfrm
Library\Bee\artifacts\mvdfrm\Unity.VSCode.Editor.ref.dll_3628369EB48E4C19.mvfrm
Library\Bee\artifacts\mvdfrm\Unity.VisualScripting.Core.Editor.ref.dll_EDC8690F57C5BDFD.mvfrm
Library\Bee\artifacts\mvdfrm\Unity.VisualScripting.Core.ref.dll_D75DF4EA1AFE54F4.mvfrm
Library\Bee\artifacts\mvdfrm\Unity.VisualScripting.Flow.Editor.ref.dll_6AF951BE66A4493E.mvfrm
Library\Bee\artifacts\mvdfrm\Unity.VisualScripting.Flow.ref.dll_1E6ED5409D07C9A3.mvfrm
Library\Bee\artifacts\mvdfrm\Unity.VisualScripting.SettingsProvider.Editor.ref.dll_A1A44354E0B583A8.mvfrm
Library\Bee\artifacts\mvdfrm\Unity.VisualScripting.Shared.Editor.ref.dll_9669F6EBFF6DFFB7.mvfrm
Library\Bee\artifacts\mvdfrm\Unity.VisualScripting.State.Editor.ref.dll_E03858E727F23F6F.mvfrm
Library\Bee\artifacts\mvdfrm\Unity.VisualScripting.State.ref.dll_D91762B7076BE462.mvfrm
Library\Bee\artifacts\mvdfrm\Unity.VisualStudio.Editor.ref.dll_3A975DBA53ABA4AD.mvfrm
Library\Bee\artifacts\mvdfrm\Unity.XR.Management.Editor.ref.dll_7BA8CC5454F13E52.mvfrm
Library\Bee\artifacts\mvdfrm\Unity.XR.Management.ref.dll_404BC0C35449934F.mvfrm
Library\Bee\artifacts\mvdfrm\Unity.XR.Oculus.Editor.ref.dll_EC6E1675CFAEEAAC.mvfrm
Library\Bee\artifacts\mvdfrm\Unity.XR.Oculus.ref.dll_431DEB9238966955.mvfrm
Library\Bee\artifacts\mvdfrm\Unity.XR.OpenXR.Editor.ref.dll_A75B1C5B45FBE091.mvfrm
Library\Bee\artifacts\mvdfrm\Unity.XR.OpenXR.Features.ConformanceAutomation.ref.dll_01FEA043C7470D3F.mvfrm
Library\Bee\artifacts\mvdfrm\Unity.XR.OpenXR.Features.OculusQuestSupport.Editor.ref.dll_FEFB5585E8396F68.mvfrm
Library\Bee\artifacts\mvdfrm\Unity.XR.OpenXR.Features.OculusQuestSupport.ref.dll_9101E0597D5BC8D9.mvfrm
Library\Bee\artifacts\mvdfrm\Unity.XR.OpenXR.Features.RuntimeDebugger.Editor.ref.dll_C24E087EF9B388C5.mvfrm
Library\Bee\artifacts\mvdfrm\Unity.XR.OpenXR.ref.dll_18763C29B6421920.mvfrm
Library\Bee\artifacts\mvdfrm\UnityEditor.SpatialTracking.ref.dll_8911EA67839E93F0.mvfrm
Library\Bee\artifacts\mvdfrm\UnityEditor.UI.ref.dll_4C98D3F7040CD4F5.mvfrm
Library\Bee\artifacts\mvdfrm\UnityEditor.XR.LegacyInputHelpers.ref.dll_3F12D550ED6E7C7D.mvfrm
Library\Bee\artifacts\mvdfrm\UnityEngine.SpatialTracking.ref.dll_1552DC8EFC971715.mvfrm
Library\Bee\artifacts\mvdfrm\UnityEngine.UI.ref.dll_08FEAA520A2EFD60.mvfrm
Library\Bee\artifacts\mvdfrm\UnityEngine.XR.LegacyInputHelpers.ref.dll_FFA26A0728B3CF82.mvfrm
Library\Bee\artifacts\mvdfrm\UnityEditor.CoreModule.dll_68AD45407BD43C11.mvfrm
Library\Bee\artifacts\mvdfrm\UnityEditor.DeviceSimulatorModule.dll_CEF962EBC14AE580.mvfrm
Library\Bee\artifacts\mvdfrm\UnityEditor.DiagnosticsModule.dll_8C58FE90EA45B7CE.mvfrm
Library\Bee\artifacts\mvdfrm\UnityEditor.dll_1FE5C393148450B4.mvfrm
Library\Bee\artifacts\mvdfrm\UnityEditor.GraphViewModule.dll_5173BB40B4F6EDE5.mvfrm
Library\Bee\artifacts\mvdfrm\UnityEditor.PackageManagerUIModule.dll_C11540EEACE88E2D.mvfrm
Library\Bee\artifacts\mvdfrm\UnityEditor.PresetsUIModule.dll_0CD9F422B74F45EA.mvfrm
Library\Bee\artifacts\mvdfrm\UnityEditor.QuickSearchModule.dll_17687F9E431CB427.mvfrm
Library\Bee\artifacts\mvdfrm\UnityEditor.SceneTemplateModule.dll_B6504106D0AE0D88.mvfrm
Library\Bee\artifacts\mvdfrm\UnityEditor.TextCoreFontEngineModule.dll_26F9772F816E666F.mvfrm
Library\Bee\artifacts\mvdfrm\UnityEditor.TextCoreTextEngineModule.dll_6EE1ADA110F21F8D.mvfrm
Library\Bee\artifacts\mvdfrm\UnityEditor.UIBuilderModule.dll_A5FC685D27AF6719.mvfrm
Library\Bee\artifacts\mvdfrm\UnityEditor.UIElementsModule.dll_01D8DA882D7B2BAD.mvfrm
Library\Bee\artifacts\mvdfrm\UnityEditor.UIElementsSamplesModule.dll_401D20B2A5B2AF90.mvfrm
Library\Bee\artifacts\mvdfrm\UnityEditor.UIServiceModule.dll_DEEE79C010E6B733.mvfrm
Library\Bee\artifacts\mvdfrm\UnityEditor.UnityConnectModule.dll_E06D4AFE568DF347.mvfrm
Library\Bee\artifacts\mvdfrm\UnityEngine.AccessibilityModule.dll_E8F5AC9DD1243525.mvfrm
Library\Bee\artifacts\mvdfrm\UnityEngine.AIModule.dll_09FD8414419FB245.mvfrm
Library\Bee\artifacts\mvdfrm\UnityEngine.AndroidJNIModule.dll_8021C35B769A9A83.mvfrm
Library\Bee\artifacts\mvdfrm\UnityEngine.AnimationModule.dll_1FF937698F53C28B.mvfrm
Library\Bee\artifacts\mvdfrm\UnityEngine.ARModule.dll_C37049179EBD110E.mvfrm
Library\Bee\artifacts\mvdfrm\UnityEngine.AssetBundleModule.dll_5B51B28FA5836919.mvfrm
Library\Bee\artifacts\mvdfrm\UnityEngine.AudioModule.dll_8347A2B7E0F508BD.mvfrm
Library\Bee\artifacts\mvdfrm\UnityEngine.ClothModule.dll_EA2FFFB2BB11E7A1.mvfrm
Library\Bee\artifacts\mvdfrm\UnityEngine.ClusterInputModule.dll_6009C0140815C60D.mvfrm
Library\Bee\artifacts\mvdfrm\UnityEngine.ClusterRendererModule.dll_D4A6255D3105F304.mvfrm
Library\Bee\artifacts\mvdfrm\UnityEngine.CoreModule.dll_8BCE189323D9A73C.mvfrm
Library\Bee\artifacts\mvdfrm\UnityEngine.CrashReportingModule.dll_08356C7D6D4F1854.mvfrm
Library\Bee\artifacts\mvdfrm\UnityEngine.DirectorModule.dll_359634027E85E459.mvfrm
Library\Bee\artifacts\mvdfrm\UnityEngine.dll_528A0A6B72F7DD99.mvfrm
Library\Bee\artifacts\mvdfrm\UnityEngine.DSPGraphModule.dll_3AE7956BF0E6B57A.mvfrm
Library\Bee\artifacts\mvdfrm\UnityEngine.GameCenterModule.dll_AA6F0D763CDB8B74.mvfrm
Library\Bee\artifacts\mvdfrm\UnityEngine.GIModule.dll_A239CD21DD4E9A5F.mvfrm
Library\Bee\artifacts\mvdfrm\UnityEngine.GridModule.dll_693F34813C2E3D33.mvfrm
Library\Bee\artifacts\mvdfrm\UnityEngine.HotReloadModule.dll_A141F56F6A86DE0D.mvfrm
Library\Bee\artifacts\mvdfrm\UnityEngine.ImageConversionModule.dll_4098230DB32AAAF8.mvfrm
Library\Bee\artifacts\mvdfrm\UnityEngine.IMGUIModule.dll_BBA7421EA7269C9E.mvfrm
Library\Bee\artifacts\mvdfrm\UnityEngine.InputLegacyModule.dll_EC96CDAE3D751F0A.mvfrm
Library\Bee\artifacts\mvdfrm\UnityEngine.InputModule.dll_E9BD6A68572D2D61.mvfrm
Library\Bee\artifacts\mvdfrm\UnityEngine.JSONSerializeModule.dll_490D35D9D05F95AF.mvfrm
Library\Bee\artifacts\mvdfrm\UnityEngine.LocalizationModule.dll_9E568A669F91B906.mvfrm
Library\Bee\artifacts\mvdfrm\UnityEngine.ParticleSystemModule.dll_5B47B5C9DB60A3E2.mvfrm
Library\Bee\artifacts\mvdfrm\UnityEngine.PerformanceReportingModule.dll_311DF6EA436F77FB.mvfrm
Library\Bee\artifacts\mvdfrm\UnityEngine.Physics2DModule.dll_6C9F275A3050BA20.mvfrm
Library\Bee\artifacts\mvdfrm\UnityEngine.PhysicsModule.dll_BBAD127D595CDD2E.mvfrm
Library\Bee\artifacts\mvdfrm\UnityEngine.ProfilerModule.dll_67DC6D3917DF6B66.mvfrm
Library\Bee\artifacts\mvdfrm\UnityEngine.RuntimeInitializeOnLoadManagerInitializerModule.dll_58AAF3235BCA6AE9.mvfrm
Library\Bee\artifacts\mvdfrm\UnityEngine.ScreenCaptureModule.dll_62F4E35EE4CBC211.mvfrm
Library\Bee\artifacts\mvdfrm\UnityEngine.SharedInternalsModule.dll_C4A961E32A58A648.mvfrm
Library\Bee\artifacts\mvdfrm\UnityEngine.SpriteMaskModule.dll_939B80065E4B20EE.mvfrm
Library\Bee\artifacts\mvdfrm\UnityEngine.SpriteShapeModule.dll_74B2DFEA5B25A123.mvfrm
Library\Bee\artifacts\mvdfrm\UnityEngine.StreamingModule.dll_D48E24B9DEDB79C9.mvfrm
Library\Bee\artifacts\mvdfrm\UnityEngine.SubstanceModule.dll_B13939032A2E77D7.mvfrm
Library\Bee\artifacts\mvdfrm\UnityEngine.SubsystemsModule.dll_FE48E6682C930901.mvfrm
Library\Bee\artifacts\mvdfrm\UnityEngine.TerrainModule.dll_D5F38DEC2F1B261C.mvfrm
Library\Bee\artifacts\mvdfrm\UnityEngine.TerrainPhysicsModule.dll_5BC25E9CF4A39E6F.mvfrm
Library\Bee\artifacts\mvdfrm\UnityEngine.TextCoreFontEngineModule.dll_A558F282946C253A.mvfrm
Library\Bee\artifacts\mvdfrm\UnityEngine.TextCoreTextEngineModule.dll_ED4128F423EFDE58.mvfrm
Library\Bee\artifacts\mvdfrm\UnityEngine.TextRenderingModule.dll_8C3455699C034206.mvfrm
Library\Bee\artifacts\mvdfrm\UnityEngine.TilemapModule.dll_74EFF56D46D80725.mvfrm
Library\Bee\artifacts\mvdfrm\UnityEngine.TLSModule.dll_8B2354321BCF3282.mvfrm
Library\Bee\artifacts\mvdfrm\UnityEngine.UIElementsModule.dll_028747D02FBF44F8.mvfrm
Library\Bee\artifacts\mvdfrm\UnityEngine.UIElementsNativeModule.dll_0B8EF5841E60FE4F.mvfrm
Library\Bee\artifacts\mvdfrm\UnityEngine.UIModule.dll_057122419DE6B7F1.mvfrm
Library\Bee\artifacts\mvdfrm\UnityEngine.UmbraModule.dll_FE1C4ED06E1BB430.mvfrm
Library\Bee\artifacts\mvdfrm\UnityEngine.UNETModule.dll_1E74607C70E89CB5.mvfrm
Library\Bee\artifacts\mvdfrm\UnityEngine.UnityAnalyticsModule.dll_7AE726938787F5DE.mvfrm
Library\Bee\artifacts\mvdfrm\UnityEngine.UnityConnectModule.dll_CDCCCF0D5115F3F2.mvfrm
Library\Bee\artifacts\mvdfrm\UnityEngine.UnityCurlModule.dll_5315D89AFF67B478.mvfrm
Library\Bee\artifacts\mvdfrm\UnityEngine.UnityTestProtocolModule.dll_FBDFD6A4FFAE04E6.mvfrm
Library\Bee\artifacts\mvdfrm\UnityEngine.UnityWebRequestAssetBundleModule.dll_910C288722364F2F.mvfrm
Library\Bee\artifacts\mvdfrm\UnityEngine.UnityWebRequestAudioModule.dll_A91A4AC8C9DA4293.mvfrm
Library\Bee\artifacts\mvdfrm\UnityEngine.UnityWebRequestModule.dll_52372AB7BE1F4577.mvfrm
Library\Bee\artifacts\mvdfrm\UnityEngine.UnityWebRequestTextureModule.dll_E26FE899BF3A38C8.mvfrm
Library\Bee\artifacts\mvdfrm\UnityEngine.UnityWebRequestWWWModule.dll_B8036E5013AF9AC4.mvfrm
Library\Bee\artifacts\mvdfrm\UnityEngine.VehiclesModule.dll_AD592D81F8AFB3F4.mvfrm
Library\Bee\artifacts\mvdfrm\UnityEngine.VFXModule.dll_0C01ECA0F23C9BEF.mvfrm
Library\Bee\artifacts\mvdfrm\UnityEngine.VideoModule.dll_A8512722A3872462.mvfrm
Library\Bee\artifacts\mvdfrm\UnityEngine.VirtualTexturingModule.dll_301BA9F2F70F7EDA.mvfrm
Library\Bee\artifacts\mvdfrm\UnityEngine.VRModule.dll_584348C73FA13D69.mvfrm
Library\Bee\artifacts\mvdfrm\UnityEngine.WindModule.dll_021CF3BBB51025A5.mvfrm
Library\Bee\artifacts\mvdfrm\UnityEngine.XRModule.dll_8B020BCBC8DB8AC7.mvfrm
Library\Bee\artifacts\mvdfrm\Unity.VisualScripting.Antlr3.Runtime.dll_C6431C2C70191E01.mvfrm