Library\Bee\artifacts\mvdfrm\Unity.VisualScripting.Antlr3.Runtime.dll_46A4CDEC9C4EDDFC.mvfrm
Library\Bee\artifacts\mvdfrm\UnityEngine.AccessibilityModule.dll_5E97298B34C492F8.mvfrm
Library\Bee\artifacts\mvdfrm\UnityEngine.AIModule.dll_8511D1217D5ECC02.mvfrm
Library\Bee\artifacts\mvdfrm\UnityEngine.AndroidJNIModule.dll_C11A9B9A4F7192C0.mvfrm
Library\Bee\artifacts\mvdfrm\UnityEngine.AnimationModule.dll_91179ABDC3B7F39E.mvfrm
Library\Bee\artifacts\mvdfrm\UnityEngine.ARModule.dll_3E849624DA7C2ACB.mvfrm
Library\Bee\artifacts\mvdfrm\UnityEngine.AssetBundleModule.dll_AF7F8AC29D0BCA8C.mvfrm
Library\Bee\artifacts\mvdfrm\UnityEngine.AudioModule.dll_D236928D41163D10.mvfrm
Library\Bee\artifacts\mvdfrm\UnityEngine.ClothModule.dll_391EEF881B331BF4.mvfrm
Library\Bee\artifacts\mvdfrm\UnityEngine.ClusterInputModule.dll_6F328F2A89ADD7EA.mvfrm
Library\Bee\artifacts\mvdfrm\UnityEngine.ClusterRendererModule.dll_01E1DE4A63639937.mvfrm
Library\Bee\artifacts\mvdfrm\UnityEngine.CoreModule.dll_3B25CE2B7AD50A99.mvfrm
Library\Bee\artifacts\mvdfrm\UnityEngine.CrashReportingModule.dll_14643BE22AA1B7D1.mvfrm
Library\Bee\artifacts\mvdfrm\UnityEngine.DirectorModule.dll_5C3185CADAEEB6F6.mvfrm
Library\Bee\artifacts\mvdfrm\UnityEngine.dll_B9CAB4F8352F3BAC.mvfrm
Library\Bee\artifacts\mvdfrm\UnityEngine.DSPGraphModule.dll_6182E7344D4F8817.mvfrm
Library\Bee\artifacts\mvdfrm\UnityEngine.GameCenterModule.dll_EB67E5B515B283B1.mvfrm
Library\Bee\artifacts\mvdfrm\UnityEngine.GIModule.dll_1D4E1A2F190DB41C.mvfrm
Library\Bee\artifacts\mvdfrm\UnityEngine.GridModule.dll_1896EA199329A090.mvfrm
Library\Bee\artifacts\mvdfrm\UnityEngine.HotReloadModule.dll_126058C39EEB0F20.mvfrm
Library\Bee\artifacts\mvdfrm\UnityEngine.ImageConversionModule.dll_6DD3DBFAE588512B.mvfrm
Library\Bee\artifacts\mvdfrm\UnityEngine.IMGUIModule.dll_0A9631F40747D0F1.mvfrm
Library\Bee\artifacts\mvdfrm\UnityEngine.InputLegacyModule.dll_40C4A5E134FD807D.mvfrm
Library\Bee\artifacts\mvdfrm\UnityEngine.InputModule.dll_38AC5A3DB74E61B4.mvfrm
Library\Bee\artifacts\mvdfrm\UnityEngine.JSONSerializeModule.dll_BEAEB2C733FFF382.mvfrm
Library\Bee\artifacts\mvdfrm\UnityEngine.LocalizationModule.dll_AD7F597D2129CAE3.mvfrm
Library\Bee\artifacts\mvdfrm\UnityEngine.ParticleSystemModule.dll_6776852E98B3435F.mvfrm
Library\Bee\artifacts\mvdfrm\UnityEngine.PerformanceReportingModule.dll_589CEBF7B37B7858.mvfrm
Library\Bee\artifacts\mvdfrm\UnityEngine.Physics2DModule.dll_DDBD8AAE64B4EB33.mvfrm
Library\Bee\artifacts\mvdfrm\UnityEngine.PhysicsModule.dll_A8880CD2410F29E1.mvfrm
Library\Bee\artifacts\mvdfrm\UnityEngine.ProfilerModule.dll_8E77BF0174483E03.mvfrm
Library\Bee\artifacts\mvdfrm\UnityEngine.RuntimeInitializeOnLoadManagerInitializerModule.dll_AEE97F9E4A4141FC.mvfrm
Library\Bee\artifacts\mvdfrm\UnityEngine.ScreenCaptureModule.dll_D896604C486C1FE4.mvfrm
Library\Bee\artifacts\mvdfrm\UnityEngine.SharedInternalsModule.dll_F1E51AD05CB64C7B.mvfrm
Library\Bee\artifacts\mvdfrm\UnityEngine.SpriteMaskModule.dll_D49458453722192B.mvfrm
Library\Bee\artifacts\mvdfrm\UnityEngine.SpriteShapeModule.dll_C8E0B81D52AE0296.mvfrm
Library\Bee\artifacts\mvdfrm\UnityEngine.StreamingModule.dll_45AC880E133FAADC.mvfrm
Library\Bee\artifacts\mvdfrm\UnityEngine.SubstanceModule.dll_22579C575E92A8EA.mvfrm
Library\Bee\artifacts\mvdfrm\UnityEngine.SubsystemsModule.dll_3F41BEA7056A013E.mvfrm
Library\Bee\artifacts\mvdfrm\UnityEngine.TerrainModule.dll_C2CE884116CD72CF.mvfrm
Library\Bee\artifacts\mvdfrm\UnityEngine.TerrainPhysicsModule.dll_67F12E01B1F63DEC.mvfrm
Library\Bee\artifacts\mvdfrm\UnityEngine.TextCoreFontEngineModule.dll_412A5D0D5BCA3BF7.mvfrm
Library\Bee\artifacts\mvdfrm\UnityEngine.TextCoreTextEngineModule.dll_8912937EEB4DF515.mvfrm
Library\Bee\artifacts\mvdfrm\UnityEngine.TextRenderingModule.dll_01D5D256FFA39FD9.mvfrm
Library\Bee\artifacts\mvdfrm\UnityEngine.TilemapModule.dll_61CAEFC22E8A53D8.mvfrm
Library\Bee\artifacts\mvdfrm\UnityEngine.TLSModule.dll_1A5FC158435E9A75.mvfrm
Library\Bee\artifacts\mvdfrm\UnityEngine.UIElementsModule.dll_4380200F08963D35.mvfrm
Library\Bee\artifacts\mvdfrm\UnityEngine.UIElementsNativeModule.dll_3C5C736DBEDE1F6C.mvfrm
Library\Bee\artifacts\mvdfrm\UnityEngine.UIModule.dll_80856F4ED9A5D1AE.mvfrm
Library\Bee\artifacts\mvdfrm\UnityEngine.UmbraModule.dll_4D0B3EA5CE3CE883.mvfrm
Library\Bee\artifacts\mvdfrm\UnityEngine.UNETModule.dll_CDCC1614C7E40012.mvfrm
Library\Bee\artifacts\mvdfrm\UnityEngine.UnityAnalyticsCommonModule.dll_F3DBA93BCD6416B6.mvfrm
Library\Bee\artifacts\mvdfrm\UnityEngine.UnityAnalyticsModule.dll_8715F5F844DA955B.mvfrm
Library\Bee\artifacts\mvdfrm\UnityEngine.UnityConnectModule.dll_DCF59E23D2AE05CF.mvfrm
Library\Bee\artifacts\mvdfrm\UnityEngine.UnityCurlModule.dll_C4343BEF33CBE58B.mvfrm
Library\Bee\artifacts\mvdfrm\UnityEngine.UnityTestProtocolModule.dll_9423677C6A4FBF79.mvfrm
Library\Bee\artifacts\mvdfrm\UnityEngine.UnityWebRequestAssetBundleModule.dll_E6521603A12AC46C.mvfrm
Library\Bee\artifacts\mvdfrm\UnityEngine.UnityWebRequestAudioModule.dll_D0993FD639E642F0.mvfrm
Library\Bee\artifacts\mvdfrm\UnityEngine.UnityWebRequestModule.dll_7F72E3A4F07CEBAA.mvfrm
Library\Bee\artifacts\mvdfrm\UnityEngine.UnityWebRequestTextureModule.dll_24092C1193A796C5.mvfrm
Library\Bee\artifacts\mvdfrm\UnityEngine.UnityWebRequestWWWModule.dll_53D4D8DADB0DB181.mvfrm
Library\Bee\artifacts\mvdfrm\UnityEngine.VehiclesModule.dll_D3F47F4A55188691.mvfrm
Library\Bee\artifacts\mvdfrm\UnityEngine.VFXModule.dll_9B3E59C719CC03E2.mvfrm
Library\Bee\artifacts\mvdfrm\UnityEngine.VideoModule.dll_F74016F803A858B5.mvfrm
Library\Bee\artifacts\mvdfrm\UnityEngine.VirtualTexturingModule.dll_60E927DC978C9FF7.mvfrm
Library\Bee\artifacts\mvdfrm\UnityEngine.VRModule.dll_D35795D47B605726.mvfrm
Library\Bee\artifacts\mvdfrm\UnityEngine.WindModule.dll_B174A9540C0B8902.mvfrm
Library\Bee\artifacts\mvdfrm\UnityEngine.XRModule.dll_061658D9049AA484.mvfrm