Library\Bee\artifacts\mvdfrm\Unity.XR.OpenXR.Editor.ref.dll_A75B1C5B45FBE091.mvfrm
Library\Bee\artifacts\mvdfrm\Unity.XR.OpenXR.ref.dll_18763C29B6421920.mvfrm
Library\Bee\artifacts\mvdfrm\UnityEditor.UI.ref.dll_4C98D3F7040CD4F5.mvfrm
Library\Bee\artifacts\mvdfrm\UnityEngine.UI.ref.dll_08FEAA520A2EFD60.mvfrm
Library\Bee\artifacts\mvdfrm\UnityEditor.Graphs.dll_34C471079584E041.mvfrm
Library\Bee\artifacts\mvdfrm\UnityEditor.CoreModule.dll_BC39E08F9236250F.mvfrm
Library\Bee\artifacts\mvdfrm\UnityEditor.DeviceSimulatorModule.dll_9DC8927B3026FEE2.mvfrm
Library\Bee\artifacts\mvdfrm\UnityEditor.DiagnosticsModule.dll_C7EE4CC01CF1A8B0.mvfrm
Library\Bee\artifacts\mvdfrm\UnityEditor.dll_9835C306FB40D756.mvfrm
Library\Bee\artifacts\mvdfrm\UnityEditor.GraphViewModule.dll_555628A3F03E9687.mvfrm
Library\Bee\artifacts\mvdfrm\UnityEditor.PackageManagerUIModule.dll_5CA56544B26005AB.mvfrm
Library\Bee\artifacts\mvdfrm\UnityEditor.PresetsUIModule.dll_10BC6185F296EE8C.mvfrm
Library\Bee\artifacts\mvdfrm\UnityEditor.QuickSearchModule.dll_52FDCDCD75C8A509.mvfrm
Library\Bee\artifacts\mvdfrm\UnityEditor.SceneTemplateModule.dll_B0F3838E47F5CEAA.mvfrm
Library\Bee\artifacts\mvdfrm\UnityEditor.TextCoreFontEngineModule.dll_B105257CA3D4D9AD.mvfrm
Library\Bee\artifacts\mvdfrm\UnityEditor.TextCoreTextEngineModule.dll_F8ED5BEE335892CB.mvfrm
Library\Bee\artifacts\mvdfrm\UnityEditor.UIBuilderModule.dll_A9DED5C062F70FBB.mvfrm
Library\Bee\artifacts\mvdfrm\UnityEditor.UIElementsModule.dll_FC80144D4EC57FEB.mvfrm
Library\Bee\artifacts\mvdfrm\UnityEditor.UIElementsSamplesModule.dll_38FE5400D6FCA932.mvfrm
Library\Bee\artifacts\mvdfrm\UnityEditor.UIServiceModule.dll_E2D0E7234C2E5FD5.mvfrm
Library\Bee\artifacts\mvdfrm\UnityEditor.UnityConnectModule.dll_9299968633165B45.mvfrm
Library\Bee\artifacts\mvdfrm\UnityEngine.AccessibilityModule.dll_E398EF25486BF647.mvfrm
Library\Bee\artifacts\mvdfrm\UnityEngine.AIModule.dll_B9418171C11D6783.mvfrm
Library\Bee\artifacts\mvdfrm\UnityEngine.AndroidJNIModule.dll_7AC8FD2097E4EEC1.mvfrm
Library\Bee\artifacts\mvdfrm\UnityEngine.AnimationModule.dll_23DBA4CCCA9B6B2D.mvfrm
Library\Bee\artifacts\mvdfrm\UnityEngine.ARModule.dll_72B446751E3AC64C.mvfrm
Library\Bee\artifacts\mvdfrm\UnityEngine.AssetBundleModule.dll_96E700BED82F59FB.mvfrm
Library\Bee\artifacts\mvdfrm\UnityEngine.AudioModule.dll_96C8145F60B6B8DF.mvfrm
Library\Bee\artifacts\mvdfrm\UnityEngine.ClothModule.dll_FDB0715A3AD397C3.mvfrm
Library\Bee\artifacts\mvdfrm\UnityEngine.ClusterInputModule.dll_12360B9BE49E2E0B.mvfrm
Library\Bee\artifacts\mvdfrm\UnityEngine.ClusterRendererModule.dll_A37554EC9FE20C66.mvfrm
Library\Bee\artifacts\mvdfrm\UnityEngine.CoreModule.dll_DF5AB3E23A3B903A.mvfrm
Library\Bee\artifacts\mvdfrm\UnityEngine.CrashReportingModule.dll_96157261E8018C12.mvfrm
Library\Bee\artifacts\mvdfrm\UnityEngine.DirectorModule.dll_8CF7D86C9DAF1CD7.mvfrm
Library\Bee\artifacts\mvdfrm\UnityEngine.dll_CADA09DF59B4643B.mvfrm
Library\Bee\artifacts\mvdfrm\UnityEngine.DSPGraphModule.dll_924939D6100FEDF8.mvfrm
Library\Bee\artifacts\mvdfrm\UnityEngine.GameCenterModule.dll_A516473B5E25DFB2.mvfrm
Library\Bee\artifacts\mvdfrm\UnityEngine.GIModule.dll_517DCA7F5CCC4F9D.mvfrm
Library\Bee\artifacts\mvdfrm\UnityEngine.GridModule.dll_BCCBCFD052902631.mvfrm
Library\Bee\artifacts\mvdfrm\UnityEngine.HotReloadModule.dll_A52462D2A5CE86AF.mvfrm
Library\Bee\artifacts\mvdfrm\UnityEngine.ImageConversionModule.dll_0F67529D2206C45A.mvfrm
Library\Bee\artifacts\mvdfrm\UnityEngine.IMGUIModule.dll_CF27B3C626E84CC0.mvfrm
Library\Bee\artifacts\mvdfrm\UnityEngine.InputLegacyModule.dll_282C1BDD70210FEC.mvfrm
Library\Bee\artifacts\mvdfrm\UnityEngine.InputModule.dll_FD3DDC0FD6EEDD83.mvfrm
Library\Bee\artifacts\mvdfrm\UnityEngine.JSONSerializeModule.dll_43B0786147A756D1.mvfrm
Library\Bee\artifacts\mvdfrm\UnityEngine.LocalizationModule.dll_5082D5EE7C1A2104.mvfrm
Library\Bee\artifacts\mvdfrm\UnityEngine.ParticleSystemModule.dll_E927BBAE561317A0.mvfrm
Library\Bee\artifacts\mvdfrm\UnityEngine.PerformanceReportingModule.dll_F6636DF6925DDEF9.mvfrm
Library\Bee\artifacts\mvdfrm\UnityEngine.Physics2DModule.dll_708194BD6B9862C2.mvfrm
Library\Bee\artifacts\mvdfrm\UnityEngine.PhysicsModule.dll_2CB10BF032D6C590.mvfrm
Library\Bee\artifacts\mvdfrm\UnityEngine.ProfilerModule.dll_BF3E11A33708A3E4.mvfrm
Library\Bee\artifacts\mvdfrm\UnityEngine.RuntimeInitializeOnLoadManagerInitializerModule.dll_7811D5FF710E578B.mvfrm
Library\Bee\artifacts\mvdfrm\UnityEngine.ScreenCaptureModule.dll_5D9825E65C138333.mvfrm
Library\Bee\artifacts\mvdfrm\UnityEngine.SharedInternalsModule.dll_937891729934BFAA.mvfrm
Library\Bee\artifacts\mvdfrm\UnityEngine.SpriteMaskModule.dll_8E42B9CB7F95752C.mvfrm
Library\Bee\artifacts\mvdfrm\UnityEngine.SpriteShapeModule.dll_B0482E198DD19205.mvfrm
Library\Bee\artifacts\mvdfrm\UnityEngine.StreamingModule.dll_D870921D1A23226B.mvfrm
Library\Bee\artifacts\mvdfrm\UnityEngine.SubstanceModule.dll_B51BA66665762079.mvfrm
Library\Bee\artifacts\mvdfrm\UnityEngine.SubsystemsModule.dll_F8F0202D4DDD5D3F.mvfrm
Library\Bee\artifacts\mvdfrm\UnityEngine.TerrainModule.dll_46F7875F08950E7E.mvfrm
Library\Bee\artifacts\mvdfrm\UnityEngine.TerrainPhysicsModule.dll_E9A264816F56122D.mvfrm
Library\Bee\artifacts\mvdfrm\UnityEngine.TextCoreFontEngineModule.dll_2F64A0CFB6D29878.mvfrm
Library\Bee\artifacts\mvdfrm\UnityEngine.TextCoreTextEngineModule.dll_774CD74146565196.mvfrm
Library\Bee\artifacts\mvdfrm\UnityEngine.TextRenderingModule.dll_86D797F1134B0328.mvfrm
Library\Bee\artifacts\mvdfrm\UnityEngine.TilemapModule.dll_E5F3EEE02051EF87.mvfrm
Library\Bee\artifacts\mvdfrm\UnityEngine.TLSModule.dll_F59D4EE6E28D3264.mvfrm
Library\Bee\artifacts\mvdfrm\UnityEngine.UIElementsModule.dll_FD2E819551099936.mvfrm
Library\Bee\artifacts\mvdfrm\UnityEngine.UIElementsNativeModule.dll_A71F19DA23D875CD.mvfrm
Library\Bee\artifacts\mvdfrm\UnityEngine.UIModule.dll_B4B51F9F1D646D2F.mvfrm
Library\Bee\artifacts\mvdfrm\UnityEngine.UmbraModule.dll_119CC077EDDD6452.mvfrm
Library\Bee\artifacts\mvdfrm\UnityEngine.UNETModule.dll_7200FBCB874A85B3.mvfrm
Library\Bee\artifacts\mvdfrm\UnityEngine.UnityAnalyticsCommonModule.dll_91A22B3AAC467D57.mvfrm
Library\Bee\artifacts\mvdfrm\UnityEngine.UnityAnalyticsModule.dll_08C72C78023A699C.mvfrm
Library\Bee\artifacts\mvdfrm\UnityEngine.UnityConnectModule.dll_7FF91A952D9E5BF0.mvfrm
Library\Bee\artifacts\mvdfrm\UnityEngine.UnityCurlModule.dll_56F845FE3AAF5D1A.mvfrm
Library\Bee\artifacts\mvdfrm\UnityEngine.UnityTestProtocolModule.dll_F4C109F330F7FE88.mvfrm
Library\Bee\artifacts\mvdfrm\UnityEngine.UnityWebRequestAssetBundleModule.dll_AB85EA68CCC8616D.mvfrm
Library\Bee\artifacts\mvdfrm\UnityEngine.UnityWebRequestAudioModule.dll_6E5FC1D518C8A991.mvfrm
Library\Bee\artifacts\mvdfrm\UnityEngine.UnityWebRequestModule.dll_21065A472CFB5ED9.mvfrm
Library\Bee\artifacts\mvdfrm\UnityEngine.UnityWebRequestTextureModule.dll_3F76D23D5B988B86.mvfrm
Library\Bee\artifacts\mvdfrm\UnityEngine.UnityWebRequestWWWModule.dll_420F1C9D36160E02.mvfrm
Library\Bee\artifacts\mvdfrm\UnityEngine.VehiclesModule.dll_04BAD1EC17D8EC72.mvfrm
Library\Bee\artifacts\mvdfrm\UnityEngine.VFXModule.dll_767BE755B8FA9BD1.mvfrm
Library\Bee\artifacts\mvdfrm\UnityEngine.VideoModule.dll_BBD198CA2348D484.mvfrm
Library\Bee\artifacts\mvdfrm\UnityEngine.VirtualTexturingModule.dll_CBABCE48FC86F658.mvfrm
Library\Bee\artifacts\mvdfrm\UnityEngine.VRModule.dll_07874624BF1EF2A7.mvfrm
Library\Bee\artifacts\mvdfrm\UnityEngine.WindModule.dll_55A98F0ACB720EA3.mvfrm
Library\Bee\artifacts\mvdfrm\UnityEngine.XRModule.dll_3A46092948594005.mvfrm
Library\Bee\artifacts\mvdfrm\UnityEditor.WindowsStandalone.Extensions.dll_9070E1BF3489B481.mvfrm